{
  "kind": "collectionType",
  "collectionName": "players",
  "info": {
    "singularName": "player",
    "pluralName": "players",
    "displayName": "Player",
    "description": ""
  },
  "options": {
    "draftAndPublish": true
  },
  "pluginOptions": {},
  "attributes": {
    "name": {
      "type": "string"
    },
    "users_permissions_user": {
      "type": "relation",
      "relation": "oneToOne",
      "target": "plugin::users-permissions.user",
      "mappedBy": "player"
    },
    "matches": {
      "type": "relation",
      "relation": "manyToMany",
      "target": "api::match.match",
      "inversedBy": "players"
    }
  }
}
