{
  "kind": "collectionType",
  "collectionName": "clubs",
  "info": {
    "singularName": "club",
    "pluralName": "clubs",
    "displayName": "Club",
    "description": ""
  },
  "options": {
    "draftAndPublish": true
  },
  "pluginOptions": {},
  "attributes": {
    "placeholder": {
      "type": "media",
      "multiple": true,
      "required": false,
      "allowedTypes": [
        "images",
        "files",
        "videos",
        "audios"
      ]
    },
    "clubname": {
      "type": "string"
    },
    "address": {
      "type": "string"
    },
    "phone": {
      "type": "string"
    },
    "field": {
      "type": "string"
    }
  }
}
